Neovascular Age-related Macular Degeneration Visual Outcomes
…
amd_12_month |>
  # remove baseline vision column for demonstration purposes
  select(-va_inj1) |>
  
  # join data frame with baseline vision
  left_join(amd_0_month,
            by = "anon_id") |>
  
  # select columns (for demonstration)
  select(anon_id,
         starts_with("va_"))

# A tibble: 4,252 × 4
   anon_id                                            va_inj1_group va_12m va_0m
   <chr>                                              <chr>          <dbl> <dbl>
 1 00081b40ab38fa7bada9c48fc3eed2e4c1e1741548bfd4039… 36-49             35    46
 2 0018ee619b6a77d07e2466e55ca84d9d20041ede600858580… >=70              61    70
 3 0024430dd21ec7d2bf85b4722f629852132cbc29de700c0fe… 50-69             77    65
 4 0036e526db61d937c27b6fe3977cae8ac1ef021ca5874584c… 50-69             20    50
 5 0059f04c0892d8148063b2259161d74db885e30531206ba8c… >=70              65    83
 6 006ef90502f583eb8d93753e536e681da423c309ef1d1c618… >=70              70    73
 7 008843ff08f8321eb9bc435b204696880c2aa7fce3528c1c7… 50-69             69    60
 8 008d118de9f1ac67424401d079ca0904741906a9ac2978820… >=70              77    80
 9 00b8ae6605b5854a429cb9cb1cb51276999f582f5d6f84c32… 50-69             74    68
10 00e95e77dcb22ff50775c69a78028c8ac0f18cdb9975fefe3… 36-49             65    48
# ℹ 4,242 more rows
…
